Aula 6 – FIP606
…
Tebuconazole
0,0210 A b
0,0202 A a

Médias seguidas pela mesma letra, minúscula na vertical ou maiúscula na horizontal, não diferem entre si pelo teste de Tukey (p > 0,05).

Segunda parte da aula

campo <- read_excel("dados_diversos.xlsx", "fungicida_campo")
campo

# A tibble: 32 × 5
    TRAT BLOCO   DFC   FER  PROD
   <dbl> <dbl> <dbl> <dbl> <dbl>
 1     1     1  10    17   4611.
 2     1     2  10.5  21   4312.
 3     1     3  12    25   4544.
 4     1     4  11    18   3409.
 5     2     1   6.2   6.5 5023.
 6     2     2   6     4   4839.
 7     2     3   7     8   4903.
 8     2     4   6.5   5   4975.
 9     3     1   6     6   5235.
10     3     2   6.2   3.5 5014.
# ℹ 22 more rows

campo2 <- campo %>% 
  mutate(trat = factor(TRAT),
         bloco = factor(BLOCO)) %>% 
  dplyr::select(trat, bloco, PROD) %>% 
  rename(prod = PROD)

campo2

# A tibble: 32 × 3
   trat  bloco  prod
   <fct> <fct> <dbl>
 1 1     1     4611.
 2 1     2     4312.
 3 1     3     4544.
 4 1     4     3409.
 5 2     1     5023.
 6 2     2     4839.
 7 2     3     4903.
 8 2     4     4975.
 9 3     1     5235.
10 3     2     5014.
# ℹ 22 more rows
…
###Parte 3 da aula

mofo <- read_excel("dados_diversos.xlsx", "mofo")
mofo

# A tibble: 52 × 5
   study treat   inc   scl   yld
   <dbl> <dbl> <dbl> <dbl> <dbl>
 1     1     1    76  2194  2265
 2     1     2    53  1663  2618
 3     1     3    42  1313  2554
 4     1     4    37  1177  2632
 5     1     5    29   753  2820
 6     1     6    42  1343  2799
 7     1     7    55  1519  2503
 8     1     8    40   516  2967
 9     1     9    26   643  2965
10     1    10    18   400  3088
# ℹ 42 more rows
…
